module gitlab.com/zigalo/grpc-rest-test

go 1.22

toolchain go1.22.3

require (
	github.com/grpc-ecosystem/grpc-gateway/v2 v2.20.0
	google.golang.org/genproto/googleapis/api v0.0.0-20240521202816-d264139d666e
	google.golang.org/grpc v1.64.0
	google.golang.org/protobuf v1.34.1
)

require (
	golang.org/x/net v0.25.0 // indirect
	golang.org/x/sys v0.20.0 // indirect
	golang.org/x/text v0.15.0 // indirect
	google.golang.org/genproto/googleapis/rpc v0.0.0-20240521202816-d264139d666e // indirect
)
